303977064	service	38.11773	23.7889512	38.1176017	23.7889687	38.1174113	23.7889265	38.1170019	23.7887858	38.1168093	23.7888843	38.1165526	23.7890081	38.1163733	23.7890559	38.1160634	23.7890559	38.1156185	23.7891206	38.1151692	23.7892078	38.1144277	23.7894132	38.1141068	23.7895032	38.1133963	23.7896495	38.1125862	23.7898802	38.1120151	23.7900237	38.1115104	23.790139	38.1110456	23.790215	38.1101381	23.7903838	38.1099034	23.790426	38.1097086	23.7904344	38.1095249	23.7903866	38.1092903	23.7902994	38.1090689	23.7901784	38.108779	23.7899702	38.1083827	23.7896467	38.1080795	23.7893654	38.1076456	23.7889462	38.1074508	23.7887971	38.1071874	23.7886199	38.1069262	23.7884708	38.1065233	23.7882344	38.1062643	23.7880516	38.1058836	23.7877787	38.105702	23.7876268	38.1054475	23.7874045	38.1051685	23.7871063	38.1048188	23.7866872	38.1045642	23.7863608	38.1042012	23.7858713	38.1037961	23.7853453	38.1036101	23.7850527	38.1033976	23.7847292	38.103278	23.7845125	38.1030899	23.7840877	38.1028508	23.7834688	38.1027135	23.7832044	38.1026228	23.7830834	38.1024922	23.7829906	38.1023593	23.7829343	38.1022066	23.7828415	38.1021335	23.7827543	38.1019675	23.7824842	38.1017439	23.7820988	38.1015646	23.7817359	38.1015004	23.7815699	38.1014561	23.7813533	38.1014163	23.7808891	38.1013764	23.7807259	38.101024	23.7792938	38.1009614	23.7790968	38.1008753	23.7790053	38.1007677	23.7789383	38.1007192	23.7789081
303977065	service	38.1178196	23.78898	38.11773	23.7889512	38.1175985	23.7888717	38.1174045	23.7887244	38.1168989	23.7882302	38.1164623	23.7878253	38.1160648	23.7870773																																																																																																																
304010447	service	38.1073673	23.773109	38.1071357	23.7725015	38.1072	23.7717421	38.1046538	23.7714399	38.1045911	23.7714685	38.1045494	23.7715624	38.1045076	23.7719993	38.1045446	23.7721422	38.1046072	23.7722075	38.10471	23.7722382	38.1061595	23.7723821	38.1071357	23.7725015																																																																																																						
304010448	service	38.1051606	23.7768696	38.1068658	23.7778911	38.1081812	23.7786937	38.1087082	23.77902	38.1090467	23.7792192	38.109308	23.7793203	38.1101303	23.7795224	38.1115342	23.7799208	38.1123725	23.7801258	38.1129427	23.7802788	38.1132107	23.7803596	38.1133381	23.7803512																																																																																																						
304010450	service	38.1093793	23.7728915	38.108572	23.772995																																																																																																																										
304010451	service	38.1052348	23.7766627	38.1050866	23.7765786																																																																																																																										
304010452	service	38.1101613	23.773738	38.1100064	23.7735585	38.1098795	23.7734237	38.1097526	23.7733033	38.1096193	23.7732686	38.1094876	23.7732625	38.109439	23.7732129	38.1094121	23.7731522	38.1093793	23.7728915	38.1093495	23.7726541	38.1093205	23.7725581	38.1092242	23.7725622	38.1086684	23.7726153	38.1086105	23.772699	38.108572	23.772995	38.108519	23.7731624	38.1084884	23.7732563	38.1085254	23.7733257	38.1085977	23.7733482	38.109439	23.7732129																																																																																						
304010453	service	38.1005114	23.7797049	38.1007102	23.779098	38.1007192	23.7789081																																																																																																																								
304010454	service	38.1061595	23.7723821	38.106212	23.7726546	38.1063288	23.7729431																																																																																																																								
304010455	service	38.1007192	23.7789081	38.1005379	23.7792512	38.1004743	23.7793811	38.1004217	23.7795077																																																																																																																						
304010456	service	38.1049603	23.7762702	38.1049571	23.7761129	38.1050025	23.7759224	38.1050571	23.7757318	38.1051771	23.7753992																																																																																																																				
304010457	service	38.106599	23.7733094	38.1069885	23.7747787	38.1072725	23.7757228	38.107436	23.7763753	38.1073338	23.7766727	38.1068658	23.7778911																																																																																																																		
304101813	service	37.9396876	23.9494183	37.9400559	23.9488113																																																																																																																										
304101814	service	37.9395813	23.9493127	37.9398655	23.9488381	37.9401477	23.9484079																																																																																																																								
304101815	service	37.9393785	23.9488014	37.9395273	23.9488261	37.9397026	23.9488301	37.9398655	23.9488381	37.9400559	23.9488113	37.9401187	23.948806																																																																																																																		
304101816	service	37.9394421	23.9491744	37.9393518	23.9493218																																																																																																																										
304101817	service	37.9393584	23.9490913	37.9395273	23.9488261																																																																																																																										
304101818	service	37.9404168	23.9490228	37.9403454	23.9489659																																																																																																																										
304101819	service	37.9401187	23.948806	37.94021	23.9488904	37.9403265	23.9489982																																																																																																																								
304101822	service	37.9403065	23.9490315	37.9403783	23.9490968																																																																																																																										
304101823	service	37.9394684	23.9492005	37.9397026	23.9488301	37.9400424	23.9483033																																																																																																																								
304193498	secondary	38.0555184	23.5879553	38.0555316	23.5878619	38.0555168	23.5877416																																																																																																																								
304193499	secondary	38.0551422	23.5877576	38.0551736	23.5878881	38.0552269	23.5880266	38.0553114	23.5880841	38.0554043	23.5880787	38.0554719	23.5880465																																																																																																																		
304193816	secondary	38.0555184	23.5879553	38.0555837	23.5879188	38.0556478	23.5878888	38.0557188	23.5878658	38.0557509	23.5878604																																																																																																																				
304193817	secondary	38.0557509	23.5878604	38.0557021	23.5878357	38.0556325	23.5878109	38.0555753	23.5877861	38.0555168	23.5877416																																																																																																																				
304193818	secondary	38.0555168	23.5877416	38.0554695	23.5876161	38.0554006	23.5875352	38.0553117	23.5875074	38.0552478	23.5875272	38.0551844	23.5875789	38.0551484	23.5876434																																																																																																																
304194957	secondary	38.0556045	23.5882699	38.0555864	23.5881407	38.0555184	23.5879553																																																																																																																								
304194958	secondary	38.0554719	23.5880465	38.0556045	23.5882699																																																																																																																										
304199146	secondary	38.0588901	23.5886676	38.0581811	23.5884826																																																																																																																										
304199147	secondary	38.0588901	23.5886676	38.0587827	23.5891259																																																																																																																										
304199148	residential	38.0581811	23.5884826	38.0581034	23.5888086																																																																																																																										
304199149	secondary	38.0581811	23.5884826	38.0573317	23.5882704	38.0564192	23.5880515	38.0557509	23.5878604																																																																																																																						
304199150	residential	38.0581034	23.5888086	38.057842	23.5899449	38.0576795	23.5906114	38.0574143	23.5916993	38.0571954	23.5925822	38.0570861	23.593069																																																																																																																		
304199151	secondary	38.0601164	23.5900239	38.0601445	23.5899416	38.0601287	23.5898304	38.0600937	23.5897726	38.0600131	23.5897125	38.0587827	23.5891259																																																																																																																		
304199152	tertiary	38.0587827	23.5891259	38.0585724	23.5901574	38.0584009	23.5908883	38.0581635	23.5919888	38.0579591	23.5928492	38.0577931	23.593554	38.0576043	23.5943985	38.0574046	23.5952708	38.0571555	23.5964211	38.0569886	23.5965532																																																																																																										
304204570	residential	38.0612156	23.6016067	38.0611926	23.6017253	38.0612156	23.6021104	38.0612071	23.6021505	38.0611804	23.6021967	38.0611197	23.6022933																																																																																																																		
304204994	residential	38.0611791	23.5986906	38.0604574	23.5984757	38.0602165	23.5983174																																																																																																																								
304204995	residential	38.0602165	23.5983174	38.0598954	23.6000717	38.060662	23.6003051	38.0611534	23.600453																																																																																																																						
304204996	residential	38.0602165	23.5983174	38.0596114	23.5980401	38.0595721	23.5979994																																																																																																																								
304205398	residential	38.0611534	23.600453	38.0611901	23.6010952	38.0612156	23.6016067	38.0612532	23.6017284	38.0613102	23.6024786	38.0613648	23.6026727	38.0615954	23.6043836	38.0616477	23.6059368	38.0617037	23.6066683	38.0619814	23.6067737	38.0623345	23.606937	38.0624162	23.6069569	38.0624621	23.6069437	38.0625077	23.6068941																																																																																																		
304206478	secondary	38.0669946	23.6026125	38.0670769	23.6029927	38.0671801	23.6034458	38.0671899	23.6034762	38.0672625	23.6037007	38.0674407	23.6041127	38.0678676	23.6050439	38.0681157	23.6056649	38.0685072	23.6068189	38.0686467	23.6072299	38.0689848	23.6080229	38.0692544	23.6086553	38.0695838	23.609428	38.0697357	23.6096334																																																																																																		
304208149	secondary	38.0638911	23.5918306	38.064108	23.5927181	38.0641624	23.5929986	38.06418	23.5931572																																																																																																																						
304208181	secondary	38.0613724	23.5893013	38.0609879	23.5905091																																																																																																																										
304208182	secondary	38.0588901	23.5886676	38.0597765	23.5889088	38.0602832	23.5890347	38.0607068	23.5891446	38.0609795	23.5892153	38.0612969	23.5892848	38.0613724	23.5893013																																																																																																																
304208736	secondary	38.0644309	23.5938572	38.0645763	23.5943774	38.0646552	23.59466	38.0648575	23.5953838																																																																																																																						
304208737	tertiary	38.0648575	23.5953838	38.0658784	23.5957202	38.065972	23.5957508	38.0660777	23.595789	38.0663328	23.5958888	38.0665915	23.5960591	38.0667855	23.5962457	38.0670305	23.5966228	38.0671667	23.5968576	38.0673448	23.5970569	38.067582	23.5972812	38.0680396	23.5977151	38.0684626	23.5981475	38.0690032	23.5984693	38.0694492	23.598809	38.0698775	23.5991353	38.0701192	23.5993487	38.0705493	23.5997289	38.0708224	23.6000258	38.0708387	23.6000412	38.0710887	23.6002766	38.0713597	23.6005319																																																																																		
304208738	secondary	38.0648575	23.5953838	38.0649208	23.5956101	38.0652992	23.5968901	38.0655041	23.5975975	38.0655974	23.5979041	38.0658097	23.598495	38.0661287	23.5993831	38.06634	23.6000715	38.0665865	23.6008501	38.0666473	23.6010635	38.0667769	23.6015595	38.0668114	23.6017152	38.0668665	23.601964	38.066945	23.6023157	38.0669946	23.6026125																																																																																																
304209195	tertiary	38.0637919	23.5949883	38.0648575	23.5953838																																																																																																																										
304209196	residential	38.0637919	23.5949883	38.0635687	23.5961331																																																																																																																										
304210109	tertiary	38.0648789	23.5869543	38.06504	23.5861091	38.0651219	23.5856712	38.0651573	23.5854819	38.0651661	23.5853818	38.065138	23.5853195	38.0650697	23.5852617	38.0647773	23.5851371	38.0646211	23.585036																																																																																																												
304210110	tertiary	38.0648789	23.5869543	38.0655898	23.5871812	38.0668833	23.5875873	38.0669989	23.5876047	38.0671367	23.5875994	38.0672499	23.587576	38.0679963	23.5873897	38.0682634	23.587323	38.0687248	23.5872693	38.0689173	23.58726	38.069195	23.5872618	38.069404	23.5872544	38.0695443	23.5872191	38.0697591	23.5871096	38.070467	23.5867018	38.0705453	23.5866567	38.070766	23.5865434	38.0708631	23.5864712	38.0709282	23.5864228	38.071162	23.586213	38.071634	23.5857861	38.07168	23.5857403	38.0718094	23.5856116	38.0722039	23.5851846	38.0724567	23.5849879	38.0727022	23.5848338	38.0732385	23.5845832	38.0735301	23.5844738																																																																						
304212762	tertiary	38.0642485	23.5867652	38.0641313	23.5867215	38.0638748	23.586626	38.0636825	23.5865544	38.0629768	23.5863194	38.0623463	23.5861171	38.0619926	23.5860036																																																																																																																
304212977	tertiary	38.0597187	23.5852257	38.0595833	23.5857889	38.0594265	23.5864524	38.0592671	23.5871439	38.059093	23.5878897	38.0588901	23.5886676																																																																																																																		
304214107	secondary	38.0609879	23.5905091	38.0604084	23.5902219	38.0601889	23.5901143	38.0601164	23.5900239																																																																																																																						
304214108	secondary	38.0609879	23.5905091	38.0607368	23.5916965	38.0606054	23.5923359	38.0605004	23.5928464	38.0603187	23.5936891	38.0602121	23.5941865	38.0601469	23.5943026	38.0594525	23.5950231	38.0587782	23.5957156	38.0579848	23.5965308	38.0573334	23.5971892	38.0569698	23.5975416	38.0568966	23.5975727	38.0568281	23.5975765																																																																																																		
304240845	secondary	38.0206005	23.7178247	38.0204666	23.7178246	38.0202896	23.7178672																																																																																																																								
304240846	secondary	38.0260581	23.7178325	38.026295	23.7178045	38.0264196	23.7177723	38.0265656	23.7177346																																																																																																																						
304251818	tertiary	38.1307039	23.7671669	38.1308121	23.7678108	38.1308508	23.7679895	38.1308799	23.7681806	38.1309381	23.7683962																																																																																																																				
304251819	residential	38.1307039	23.7671669	38.131211	23.7670744	38.1321734	23.7666006																																																																																																																								
304252007	tertiary	38.1303931	23.7641262	38.1304036	23.7642251																																																																																																																										
304252009	tertiary	38.1303931	23.7641262	38.1301916	23.7641574	38.1299679	23.7641735	38.1296346	23.7641896	38.1293308	23.7641789	38.1292627	23.764171	38.1290523	23.7641467	38.1288666	23.7641145	38.128664	23.7640716	38.1284151	23.7639911	38.1281619	23.7638999	38.1279171	23.7637873	38.1276513	23.7636531	38.1274248	23.7635275	38.1273221	23.7634705																																																																																																
304253033	residential	38.1273221	23.7634705	38.1272844	23.7635633																																																																																																																										
304253034	tertiary	38.1273221	23.7634705	38.1265499	23.7630041	38.1255624	23.7623818	38.1248211	23.7619236	38.1246673	23.7618285																																																																																																																				
304253049	tertiary	38.1246673	23.7618285	38.1247175	23.7616888	38.1247994	23.7615131	38.1249557	23.7612253	38.1250677	23.7610363	38.1252276	23.7607964	38.1253683	23.7606114	38.1255936	23.7603109	38.1259447	23.7599247	38.1261918	23.7596909	38.1263427	23.759548	38.1266402	23.7592896	38.1270655	23.7589291	38.1275179	23.7586201																																																																																																		
304253050	tertiary	38.1246673	23.7618285	38.1245344	23.7617469	38.1239983	23.7614355	38.1231739	23.7609227	38.1224351	23.7604789	38.1217053	23.7600375	38.1208317	23.759485	38.1204941	23.7592704	38.1203491	23.7592921																																																																																																												
304253369	tertiary	38.1275179	23.7586201	38.128004	23.7583283	38.1284766	23.7581051	38.1289226	23.7578953																																																																																																																						
304253370	secondary	38.1275179	23.7586201	38.1273272	23.7584951																																																																																																																										
304253577	tertiary	38.1273272	23.7584951	38.1269777	23.7587574	38.1265321	23.7591093	38.1265176	23.7591221	38.1261608	23.7594355	38.1258637	23.7597273	38.125659	23.7599412	38.1254839	23.7601317	38.1251927	23.7604884	38.1249724	23.7608345	38.1247294	23.7612637	38.1245344	23.7617469	38.1245	23.7618319																																																																																																				
304254086	tertiary	38.1245	23.7618319	38.1246315	23.7619132	38.1246581	23.7619307	38.1247697	23.7620042	38.125076	23.7621948	38.1261929	23.7628895	38.1272844	23.7635633																																																																																																																
304254800	tertiary	38.1272844	23.7635633	38.1275015	23.7636812	38.1278002	23.7638433	38.1280671	23.7639562	38.1283917	23.7640804	38.1286993	23.7641649	38.1289712	23.7642274	38.1292405	23.7642599	38.1295164	23.7642819	38.12977	23.764287	38.1300817	23.7642674	38.1304036	23.7642251																																																																																																						
304254801	residential	38.1272844	23.7635633	38.1267867	23.7648974	38.1262553	23.766259																																																																																																																								
304295871	residential	37.9783261	23.2182516	37.9787988	23.218175	37.9798821	23.217995	37.9807345	23.2178175	37.9812919	23.2177014	37.9815143	23.2176293	37.9817384	23.2175435	37.9818695	23.217463	37.9819498	23.2173718	37.9819879	23.2172752	37.9819679	23.2169797	37.9820428	23.2167656	37.9820851	23.216594	37.9821742	23.216344	37.9822627	23.2161058	37.9823707	23.2157383	37.9824741	23.2154835	37.9825967	23.2153011	37.9827427	23.2151156	37.982935	23.214931	37.9831084	23.2147969	37.9832183	23.2147701	37.9833494	23.2147647	37.9834593	23.2147754	37.9835904	23.2147432	37.9836665	23.2146735	37.9837299	23.2145823	37.9837426	23.2145126	37.9837302	23.2144143	37.9836792	23.2143194	37.9836242	23.2141907	37.9836157	23.2140941	37.9836327	23.2139547	37.9836834	23.2138098																																																										
304295879	residential	37.9751555	23.2181715	37.9753707	23.2181621	37.9757767	23.2181085	37.9764116	23.2180055	37.977337	23.21791	37.977447	23.2178832	37.9774892	23.2179583	37.9775019	23.2181729	37.97754	23.2182587	37.9776246	23.218307	37.9776922	23.2183713	37.9777472	23.2184625	37.9777726	23.2185698	37.9777768	23.2187147	37.9777683	23.2188971	37.9777683	23.2190258	37.9777599	23.2191599	37.9777218	23.2192082																																																																																										
304295881	residential	37.9783261	23.2182516	37.9784983	23.2196416	37.9786309	23.2201631	37.9786355	23.2201884	37.9786901	23.2204903	37.9787028	23.2206298	37.9787493	23.2207424																																																																																																																
304295882	residential	37.9788671	23.2187325	37.9799512	23.2185321																																																																																																																										
304295883	residential	37.9770016	23.2137533	37.9768937	23.212585																																																																																																																										
304295884	residential	37.974821	23.2147128	37.9748591	23.2146538	37.974876	23.2145358	37.9748929	23.214348	37.9749225	23.2142944	37.975024	23.2143051	37.9761345	23.2144229																																																																																																																
304295885	residential	37.9751673	23.2194922	37.9757894	23.2194174	37.9765886	23.2193316	37.9771679	23.2192779	37.9777218	23.2192082																																																																																																																				
304295886	residential	37.9771679	23.2192779	37.9771923	23.2197672	37.9772049	23.2200055																																																																																																																								
304295887	residential	37.9743981	23.2204205	37.9746562	23.2204244	37.975174	23.220432																																																																																																																								
304295888	residential	37.9746562	23.2204244	37.974697	23.221172																																																																																																																										
304295889	residential	37.974697	23.221172	37.9746307	23.2213302	37.9744741	23.2215647																																																																																																																								
304295890	residential	37.9744741	23.2215647	37.973858	23.2215842																																																																																																																										
304295891	residential	37.973858	23.2215842	37.9737563	23.2215664	37.9737091	23.2215582	37.973573	23.2215712	37.973288	23.2216494	37.9731523	23.221716	37.9731082	23.2217259	37.973045	23.2217375	37.9723561	23.2218741	37.9721199	23.2219164	37.9719677	23.2219393																																																																																																								
304297997	residential	37.9751727	23.2199978	37.9757081	23.2199335	37.9763339	23.2198692	37.9768245	23.2198101	37.9771923	23.2197672																																																																																																																				
304297998	residential	37.9777726	23.2185698	37.9778816	23.2185012	37.9779873	23.218469	37.9780592	23.2184583	37.9781564	23.21841																																																																																																																				
304297999	residential	37.9775981	23.2197671	37.9776515	23.2200102	37.9776945	23.2201977	37.9778164	23.220729																																																																																																																						
304298000	residential	37.9776945	23.2201977	37.9778587	23.2202033	37.978142	23.2202033	37.9784126	23.220198	37.9786355	23.2201884	37.9787636	23.2201282	37.9793725	23.2198654	37.9801209	23.219506																																																																																																														
304298001	residential	37.9778164	23.220729	37.9779898	23.2207344	37.9787493	23.2207424	37.978827	23.2207344	37.9790723	23.220611	37.9796854	23.2202301	37.9799137	23.2200853	37.980042	23.2200329																																																																																																														
304298002	residential	37.978827	23.2207344	37.9788046	23.2210099	37.9788175	23.2212086	37.9788432	23.2212835	37.9788868	23.2213063	37.979028	23.221277	37.9793489	23.2211793	37.9795234	23.2211076	37.9796133	23.2209839	37.9798084	23.2206158	37.9799778	23.2202153	37.980042	23.2200329	37.9801138	23.2198277	37.9801292	23.2197007	37.9801209	23.219506	37.9801036	23.2192578	37.9800856	23.2190852	37.9800702	23.2189289																																																																																										
304298003	residential	37.9800107	23.2189941	37.9800702	23.2189289	37.9801575	23.2188149	37.9804014	23.2184338	37.9805656	23.2181668	37.9806504	23.2179844	37.9807345	23.2178175																																																																																																																
304298004	residential	37.9745139	23.2237863	37.9748069	23.2237753	37.9751621	23.2237592	37.9755723	23.2237377	37.9758979	23.223727	37.9762023	23.2237216																																																																																																																		
304298005	residential	37.974574	23.2254497	37.9750826	23.2254641																																																																																																																										
304298006	residential	37.9755723	23.2237377	37.9755774	23.2232663	37.9760857	23.223237																																																																																																																								
304298007	residential	37.9764385	23.2204113	37.9764477	23.2207814	37.9764348	23.2212374	37.9764066	23.2218594	37.9763784	23.2224782	37.9763732	23.2228071	37.9763604	23.2230253	37.9763681	23.2231295	37.9764015	23.2232044																																																																																																												
304298008	residential	37.9767729	23.234421	37.976769	23.2343228	37.9767644	23.2342064	37.9767221	23.2340079	37.976591	23.2336646	37.9764769	23.2332784	37.9762908	23.2327044	37.9761301	23.2322377	37.9759398	23.2316583	37.975868	23.2313633	37.9759102	23.2312721	37.9760371	23.2311809	37.9761809	23.2310901																																																																																																				
304298009	residential	37.9764641	23.2309921	37.9765741	23.2309395	37.9766968	23.2308376	37.9768955	23.2306552	37.9770006	23.2305101	37.9770393	23.2304567	37.9772296	23.2301348	37.9774029	23.2298827	37.9775094	23.2298651	37.9776313	23.2298398	37.9777539	23.2297593	37.9778511	23.2296628	37.9779484	23.2295233	37.9780287	23.2293731	37.978071	23.2291961	37.978071	23.2290351	37.9780964	23.2288688	37.9781514	23.2287133	37.978329	23.228327	37.9784262	23.2280373	37.9785362	23.2278389	37.978663	23.2276511	37.9787729	23.227576	37.9788702	23.2275599	37.9789463	23.2275814	37.9789928	23.2276833	37.9790182	23.2277798	37.9790267	23.2279354	37.9790267	23.2280964	37.9790309	23.228209	37.9790525	23.2282535	37.9790647	23.2282787	37.9792085	23.2283217	37.9795933	23.2284343	37.9796526	23.2284556	37.9798533	23.2285276	37.9799823	23.2285738	37.9803121	23.2287133	37.9807307	23.2288313	37.9808279	23.2288688	37.9808745	23.2289493	37.9808702	23.2290459	37.980811	23.2293784	37.9806969	23.2300329																																						
304298010	residential	37.9762908	23.2327044	37.9768668	23.2324785	37.9771661	23.2323611	37.9775295	23.2322206	37.9779991	23.2320392	37.9781902	23.2319618	37.9787941	23.2317173	37.9788703	23.231686	37.9795352	23.2314126	37.9797201	23.2313365	37.9801387	23.2311702																																																																																																								
304298011	residential	37.976769	23.2343228	37.9771027	23.2341903	37.9772689	23.2341337	37.977386	23.2340938	37.9779458	23.2338752	37.9782106	23.2337719	37.9786356	23.2336096	37.9790393	23.2334554	37.9792804	23.2333481																																																																																																												
304298012	residential	37.9780287	23.2293731	37.9781641	23.2294053	37.9782444	23.2294643	37.9783078	23.2295608	37.978367	23.2297432	37.9784554	23.2300579	37.9785404	23.2303601	37.9788703	23.231686	37.9792804	23.2333481
